<?xml version="1.0" encoding="utf-8"?>
<!DOCTYPE svg PUBLIC "-//W3C//DTD SVG 1.0//EN" "http://www.w3.org/TR/2001/REC-SVG-20010904/DTD/svg10.dtd">
<svg
xmlns="http://www.w3.org/2000/svg"
xmlns:xlink="http://www.w3.org/1999/xlink"
xmlns:ev="http://www.w3.org/2001/xml-events"
version="1.1"
baseProfile="full">
<g stroke-width="1px" stroke="black" fill="white">
<rect width="10" height="10" x="0" y="0" fill="blue"/>
<rect width="10" height="10" x="10" y="0" fill="white"/>
<rect width="10" height="10" x="20" y="0" fill="white"/>
<rect width="10" height="10" x="30" y="0" fill="white"/>
<rect width="10" height="10" x="40" y="0" fill="white"/>
<rect width="10" height="10" x="50" y="0" fill="white"/>
<rect width="10" height="10" x="60" y="0" fill="white"/>
<rect width="10" height="10" x="70" y="0" fill="white"/>
<rect width="10" height="10" x="80" y="0" fill="white"/>
<rect width="10" height="10" x="90" y="0" fill="white"/>
<rect width="10" height="10" x="100" y="0" fill="white"/>
<rect width="10" height="10" x="110" y="0" fill="white"/>
<rect width="10" height="10" x="120" y="0" fill="white"/>
<rect width="10" height="10" x="130" y="0" fill="white"/>
<rect width="10" height="10" x="140" y="0" fill="white"/>
<rect width="10" height="10" x="150" y="0" fill="white"/>
<rect width="10" height="10" x="160" y="0" fill="white"/>
<rect width="10" height="10" x="0" y="10" fill="blue"/>
<rect width="10" height="10" x="10" y="10" fill="yellow"/>
<rect width="10" height="10" x="20" y="10" fill="white"/>
<rect width="10" height="10" x="30" y="10" fill="white"/>
<rect width="10" height="10" x="40" y="10" fill="white"/>
<rect width="10" height="10" x="50" y="10" fill="white"/>
<rect width="10" height="10" x="60" y="10" fill="white"/>
<rect width="10" height="10" x="70" y="10" fill="white"/>
<rect width="10" height="10" x="80" y="10" fill="white"/>
<rect width="10" height="10" x="90" y="10" fill="white"/>
<rect width="10" height="10" x="100" y="10" fill="white"/>
<rect width="10" height="10" x="110" y="10" fill="white"/>
<rect width="10" height="10" x="120" y="10" fill="white"/>
<rect width="10" height="10" x="130" y="10" fill="white"/>
<rect width="10" height="10" x="140" y="10" fill="white"/>
<rect width="10" height="10" x="150" y="10" fill="white"/>
<rect width="10" height="10" x="160" y="10" fill="white"/>
<rect width="10" height="10" x="0" y="20" fill="blue"/>
<rect width="10" height="10" x="10" y="20" fill="yellow"/>
<rect width="10" height="10" x="20" y="20" fill="blue"/>
<rect width="10" height="10" x="30" y="20" fill="white"/>
<rect width="10" height="10" x="40" y="20" fill="white"/>
<rect width="10" height="10" x="50" y="20" fill="white"/>
<rect width="10" height="10" x="60" y="20" fill="white"/>
<rect width="10" height="10" x="70" y="20" fill="white"/>
<rect width="10" height="10" x="80" y="20" fill="white"/>
<rect width="10" height="10" x="90" y="20" fill="white"/>
<rect width="10" height="10" x="100" y="20" fill="white"/>
<rect width="10" height="10" x="110" y="20" fill="white"/>
<rect width="10" height="10" x="120" y="20" fill="white"/>
<rect width="10" height="10" x="130" y="20" fill="white"/>
<rect width="10" height="10" x="140" y="20" fill="white"/>
<rect width="10" height="10" x="150" y="20" fill="white"/>
<rect width="10" height="10" x="160" y="20" fill="white"/>
<rect width="10" height="10" x="0" y="30" fill="blue"/>
<rect width="10" height="10" x="10" y="30" fill="yellow"/>
<rect width="10" height="10" x="20" y="30" fill="white"/>
<rect width="10" height="10" x="30" y="30" fill="yellow"/>
<rect width="10" height="10" x="40" y="30" fill="white"/>
<rect width="10" height="10" x="50" y="30" fill="white"/>
<rect width="10" height="10" x="60" y="30" fill="white"/>
<rect width="10" height="10" x="70" y="30" fill="white"/>
<rect width="10" height="10" x="80" y="30" fill="white"/>
<rect width="10" height="10" x="90" y="30" fill="white"/>
<rect width="10" height="10" x="100" y="30" fill="white"/>
<rect width="10" height="10" x="110" y="30" fill="white"/>
<rect width="10" height="10" x="120" y="30" fill="white"/>
<rect width="10" height="10" x="130" y="30" fill="white"/>
<rect width="10" height="10" x="140" y="30" fill="white"/>
<rect width="10" height="10" x="150" y="30" fill="white"/>
<rect width="10" height="10" x="160" y="30" fill="white"/>
<rect width="10" height="10" x="0" y="40" fill="blue"/>
<rect width="10" height="10" x="10" y="40" fill="yellow"/>
<rect width="10" height="10" x="20" y="40" fill="white"/>
<rect width="10" height="10" x="30" y="40" fill="white"/>
<rect width="10" height="10" x="40" y="40" fill="blue"/>
<rect width="10" height="10" x="50" y="40" fill="white"/>
<rect width="10" height="10" x="60" y="40" fill="white"/>
<rect width="10" height="10" x="70" y="40" fill="white"/>
<rect width="10" height="10" x="80" y="40" fill="white"/>
<rect width="10" height="10" x="90" y="40" fill="white"/>
<rect width="10" height="10" x="100" y="40" fill="white"/>
<rect width="10" height="10" x="110" y="40" fill="white"/>
<rect width="10" height="10" x="120" y="40" fill="white"/>
<rect width="10" height="10" x="130" y="40" fill="white"/>
<rect width="10" height="10" x="140" y="40" fill="white"/>
<rect width="10" height="10" x="150" y="40" fill="white"/>
<rect width="10" height="10" x="160" y="40" fill="white"/>
<rect width="10" height="10" x="0" y="50" fill="blue"/>
<rect width="10" height="10" x="10" y="50" fill="yellow"/>
<rect width="10" height="10" x="20" y="50" fill="blue"/>
<rect width="10" height="10" x="30" y="50" fill="blue"/>
<rect width="10" height="10" x="40" y="50" fill="yellow"/>
<rect width="10" height="10" x="50" y="50" fill="yellow"/>
<rect width="10" height="10" x="60" y="50" fill="white"/>
<rect width="10" height="10" x="70" y="50" fill="white"/>
<rect width="10" height="10" x="80" y="50" fill="white"/>
<rect width="10" height="10" x="90" y="50" fill="white"/>
<rect width="10" height="10" x="100" y="50" fill="white"/>
<rect width="10" height="10" x="110" y="50" fill="white"/>
<rect width="10" height="10" x="120" y="50" fill="white"/>
<rect width="10" height="10" x="130" y="50" fill="white"/>
<rect width="10" height="10" x="140" y="50" fill="white"/>
<rect width="10" height="10" x="150" y="50" fill="white"/>
<rect width="10" height="10" x="160" y="50" fill="white"/>
<rect width="10" height="10" x="0" y="60" fill="blue"/>
<rect width="10" height="10" x="10" y="60" fill="yellow"/>
<rect width="10" height="10" x="20" y="60" fill="white"/>
<rect width="10" height="10" x="30" y="60" fill="white"/>
<rect width="10" height="10" x="40" y="60" fill="blue"/>
<rect width="10" height="10" x="50" y="60" fill="blue"/>
<rect width="10" height="10" x="60" y="60" fill="blue"/>
<rect width="10" height="10" x="70" y="60" fill="white"/>
<rect width="10" height="10" x="80" y="60" fill="white"/>
<rect width="10" height="10" x="90" y="60" fill="white"/>
<rect width="10" height="10" x="100" y="60" fill="white"/>
<rect width="10" height="10" x="110" y="60" fill="white"/>
<rect width="10" height="10" x="120" y="60" fill="white"/>
<rect width="10" height="10" x="130" y="60" fill="white"/>
<rect width="10" height="10" x="140" y="60" fill="white"/>
<rect width="10" height="10" x="150" y="60" fill="white"/>
<rect width="10" height="10" x="160" y="60" fill="white"/>
<rect width="10" height="10" x="0" y="70" fill="blue"/>
<rect width="10" height="10" x="10" y="70" fill="yellow"/>
<rect width="10" height="10" x="20" y="70" fill="blue"/>
<rect width="10" height="10" x="30" y="70" fill="blue"/>
<rect width="10" height="10" x="40" y="70" fill="white"/>
<rect width="10" height="10" x="50" y="70" fill="red"/>
<rect width="10" height="10" x="60" y="70" fill="white"/>
<rect width="10" height="10" x="70" y="70" fill="yellow"/>
<rect width="10" height="10" x="80" y="70" fill="white"/>
<rect width="10" height="10" x="90" y="70" fill="white"/>
<rect width="10" height="10" x="100" y="70" fill="white"/>
<rect width="10" height="10" x="110" y="70" fill="white"/>
<rect width="10" height="10" x="120" y="70" fill="white"/>
<rect width="10" height="10" x="130" y="70" fill="white"/>
<rect width="10" height="10" x="140" y="70" fill="white"/>
<rect width="10" height="10" x="150" y="70" fill="white"/>
<rect width="10" height="10" x="160" y="70" fill="white"/>
</g> </svg>
